PROJETO MARCELO - Projeto Acidovorax Phage
…
DIFERENÇA NO CONTEÚDO GC

phages <- read_excel("Dataset_Acc.xlsx", 3)
bac <- read_excel("Dataset_Acc.xlsx")
bac$`GC(%)` <- as.numeric(bac$`GC(%)`)
phages$gc_phage <- as.numeric(phages$gc_phage)

phages

# A tibble: 120 × 12
    `N°` strain group `Access number` Prophage-like elemen…¹ `Contig (location)`
   <dbl> <chr>  <chr> <chr>                            <dbl> <chr>              
 1     1 AAC00… grup… NC_008752                            1 1 (557260-569777 ) 
 2     2 AAC00… grup… <NA>                                 2 1 (757777-768236)  
 3     3 AAC00… grup… <NA>                                 3 1 (1757298-1802907)
 4     4 AAC00… grup… <NA>                                 4 1 (1845873-1866259)
 5     5 AAC00… grup… <NA>                                 5 1 (1877991-1906636)
 6     6 AAC00… grup… <NA>                                 6 1 (1907029-1944343)
 7     7 AAC00… grup… <NA>                                 7 1 (2571459-2628861)
 8     8 AAC00… grup… <NA>                                 8 1 (3700345-3708165)
 9     9 AAC00… grup… <NA>                                 9 1 (3719583-3742692)
10    10 AAC00… grup… <NA>                                10 1 (4568376-4585713)
# ℹ 110 more rows
# ℹ abbreviated name: ¹​`Prophage-like elements`
# ℹ 6 more variables: size_phage <chr>, per_genome <chr>, t_gen <chr>,
#   classification <chr>, gc_phage <dbl>, CDS <dbl>
…
